<svg xmlns="http://www.w3.org/2000/svg" width="30" height="24" viewBox="0 0 30 24">
  <metadata><?xpacket begin="﻿" id="W5M0MpCehiHzreSzNTczkc9d"?>
<x:xmpmeta xmlns:x="adobe:ns:meta/" x:xmptk="Adobe XMP Core 5.6-c138 79.159824, 2016/09/14-01:09:01        ">
   <rdf:RDF xmlns:rdf="http://www.w3.org/1999/02/22-rdf-syntax-ns#">
      <rdf:Description rdf:about=""/>
   </rdf:RDF>
</x:xmpmeta>
                                                                                                    
                                                                                                    
                                                                                                    
                                                                                                    
                                                                                                    
                                                                                                    
                                                                                                    
                                                                                                    
                                                                                                    
                                                                                                    
                                                                                                    
                                                                                                    
                                                                                                    
                                                                                                    
                                                                                                    
                                                                                                    
                                                                                                    
                                                                                                    
                                                                                                    
                                                                                                    
                           
<?xpacket end="w"?></metadata>
<defs>
    <style>
      .cls-1 {
        fill: #cad2d8;
        fill-rule: evenodd;
      }
    </style>
  </defs>
  <path id="_" data-name="”" class="cls-1" d="M956.041,3715.75a4.2,4.2,0,0,0,3.447,1.56,5.232,5.232,0,0,0,1.263-.12,9.127,9.127,0,0,1-1.493,5.43,11.731,11.731,0,0,1-4.136,3.46l2.872,3.92a15.6,15.6,0,0,0,6.261-4.67,17.544,17.544,0,0,0,2.643-4.68,17.857,17.857,0,0,0,1.091-6.57q0-4.035-2.01-6.06a7.044,7.044,0,0,0-5.228-2.02,6.191,6.191,0,0,0-4.308,1.5,5.308,5.308,0,0,0-1.666,4.15A6.3,6.3,0,0,0,956.041,3715.75Zm-16.773,0a4.2,4.2,0,0,0,3.447,1.56,5.232,5.232,0,0,0,1.263-.12,9.127,9.127,0,0,1-1.493,5.43,11.731,11.731,0,0,1-4.136,3.46l2.872,3.92a15.6,15.6,0,0,0,6.261-4.67,17.544,17.544,0,0,0,2.643-4.68,17.857,17.857,0,0,0,1.091-6.57q0-4.035-2.01-6.06a7.044,7.044,0,0,0-5.228-2.02,6.191,6.191,0,0,0-4.308,1.5,5.308,5.308,0,0,0-1.666,4.15A6.292,6.292,0,0,0,939.268,3715.75Z" transform="translate(-938 -3706)"/>
</svg>
